{
    "version": 1,
    "disable_existing_loggers": 0,
    "formatters": {
        "default": {
            "()": "uvicorn.logging.DefaultFormatter",
            "fmt": "%(asctime)s %(levelprefix)s %(name)s: %(message)s"
        },
        "access": {
            "()": "uvicorn.logging.AccessFormatter",
            "fmt": "%(asctime)s %(levelprefix)s %(client_addr)s - \"%(request_line)s\" %(status_code)s"
        }
    },
    "handlers": {
        "default": {
            "formatter": "default",
            "class": "logging.StreamHandler",
            "stream": "ext://sys.stdout"
        },
        "access": {
            "formatter": "access",
            "class": "logging.StreamHandler",
            "stream": "ext://sys.stdout"
        }
    },
    "root": {
        "level": "INFO",
        "handlers": ["default"]
    },
    "loggers": {
        "app": {
            "level": "DEBUG"
        },
        "uvicorn": {
            "level": "INFO"
        },
        "uvicorn.error": {
            "level": "INFO"
        },
        "uvicorn.access": {
            "handlers": [
                "access"
            ],
            "level": "INFO",
            "propagate": 0
        }
    }
}